{
  "request" : {
    "url" : "/api/v1/restaurateurs/auth",
    "method" : "POST",
    "headers" : {
      "Content-Type" : {
        "matches" : "application/json.*"
      }
    },
    "bodyPatterns" : [ {
      "matchesJsonPath" : "$[?(@.['login'] == 'successful_login@mail.com')]"
    }, {
      "matchesJsonPath" : "$[?(@.['password'] == 'password')]"
    } ]
  },
  "response" : {
    "status" : 200,
    "body" : "{\"id\":800652197,\"restaurantId\":13,\"login\":\"{{{jsonPath request.body '$.login'}}}\",\"name\":\"successful_login@mail.com\"}",
    "headers" : {
      "Content-Type" : "application/json"
    },
    "transformers" : [ "response-template" ]
  },
  "priority" : 1
}
