{
  "request": {
    "urlPathPattern": "/api/v1/restaurants/[0-9]+/categories",
    "method": "GET"
  },
  "response": {
    "status": 200,
    "headers": {
      "Content-Type": "application/json"
    },
    "bodyFileName": "restaurant-categories-response.json"
  }
}
